…
**Example 2. Count Unique Countries by Continent and Year**

By using both continent and year as grouping variables, we see the
number of unique countries for each year within each continent.

``` r
count_unique(gapminder, country, continent, year, .groups = "keep")
```

    ## # A tibble: 60 × 3
    ## # Groups:   continent, year [60]
    ##    continent  year unique_sum
    ##    <fct>     <int>      <int>
    ##  1 Africa     1952         52
    ##  2 Africa     1957         52
    ##  3 Africa     1962         52
    ##  4 Africa     1967         52
    ##  5 Africa     1972         52
    ##  6 Africa     1977         52
    ##  7 Africa     1982         52
    ##  8 Africa     1987         52
    ##  9 Africa     1992         52
    ## 10 Africa     1997         52
    ## # ℹ 50 more rows
…
